FLUXNET Demo Plots (with Global Maps) – Fluxnet Figures
…
Code

manifest <- dplyr::bind_rows(amf_files, icos_files) %>%
  dplyr::distinct(site, data_product, dataset, time_integral, start_year, end_year, .keep_all = TRUE)

manifest %>% dplyr::count(dataset, time_integral)

# A tibble: 25 × 3
   dataset time_integral     n
   <chr>   <chr>         <int>
 1 ERA5    DD              328
 2 ERA5    HH              323
 3 ERA5    HR                5
 4 ERA5    MM              328
 5 ERA5    WW              328
 6 ERA5    YY              328
 7 FULLSET DD              432
 8 FULLSET HH              420
 9 FULLSET HR                4
10 FULLSET MM              283
# ℹ 15 more rows
…
